-992
992
992
-800 -24 152
992
-24 24 -24 -24 24 -24 -24 -24 736
824 -160
-432 552
-16 -32 -40 48 -32 784
-360 256 -248 104
-24 8 -24 -8 40 -16 -40 776
-96 112 -200 560
-520 144 -184 120
-672 112 -112 72
-672 -80 24 -112 72
-672 -80 -8 -8 -16 88 -8 56
40 -376 -8 -8 -8 -8 -8 -8 -8 -8 -8 -16 -16 -16 -16 -16 -16 -16 -16 -16 -184 8
8 -8 -8 -8 -8 -8 -8 -8 -16 -16 -16 -16 -16 -16 -16 -16 -16 32 -416 -184
-8 -16 -24 -32 -40 -48 -56 -64 -72 -64 -56 -48 -32 -32 -16 -48 -8 192
184 -32 -48 -24 72 -200 384
24 -32 -48 -16 840
