-8 16 -24 32 -40 48 -56 -64 640
-64 56 -48 40 -32 24 -16 -8 640
432 -80 464
992
-992
992
-16 32 -48 64 -80 712
-16 32 -48 -64 800
992
-56 -56 -56 800
-72 -72 -72 -144 -72 -72 -72 360
-72 -72 -72 144 -72 -72 -72 360
-72 -72 304 -72 -72 360
-72 464 -72 360
992
-8 -8 -8 -8 -8 -8 -8 -8 -8 -8 -8 -8 -8 -8 -8 -8 -8 -8 -8 -8 -8 -8 -8 -8 -8 -8 576
8 -8 8 -8 8 -8 8 -8 8 -8 8 -8 8 -8 8 -8 8 -8 8 -8 8 -8 8 -8 8 -8 576
-160 -160 -160 -160 320
992
-8 -16 -24 -32 -40 -48 -56 -64 72 -64 -56 -48 -40 -32 -24 -16 -8 208
