-32 -24 -8 -16 -32 -56 -32 -24 704
-56 -72 -80 -8 -32 -48 -24 -72 -64 -56 400
-16 -80 16 -40 -72 -32 -24 656
-48 -40 -56 -56 -32 -40 -24 -40 592
128 -72 -80 688
-56 80 -8 -72 -16 -24 -24 656
-16 -64 -16 -80 784
-64 -56 -32 48 -32 -80 -72 552
-72 -32 32 -72 -56 -16 -80 576
8 -40 56 -16 -48 -56 -72 -64 568
-40 -32 32 -80 48 -72 -72 -56 496
-8 -8 -24 16 -64 832
-24 64 -80 -24 -48 712
-72 32 -72 -8 -48 720
-80 16 -40 -72 -32 712
-16 -8 -40 -56 -32 -72 -48 -56 600
992
-24 -16 -8 16 -32 856
992
-48 -24 -8 -72 -40 24 -40 -80 -80 504
