-40 -32 -40 -8 32 -8 -24 -72 -80 584
-56 -32 -16 -40 8 -8 -80 -40 -16 624
-24 24 -48 -56 -40 -16 -16 712
-16 -56 -80 -24 -72 -64 632
-64 -24 -8 -16 -24 -72 -56 -48 -32 -48 520
-32 -16 -80 -40 -80 -56 -48 -56 520
-80 -24 -16 -24 -64 -64 -64 -16 -80 -16 464
-72 -72 24 -64 -40 -80 -80 504
-8 -16 -8 8 -32 -24 -48 -72 -40 664
-32 8 -32 -80 -40 -72 -64 -56 -72 464
-56 -40 880
-16 -24 -32 -8 -8 24 -48 776
-32 -32 -32 -40 32 -72 -48 648
-16 -24 8 -48 -80 -24 -32 704
8 -16 -24 -40 -40 -80 -56 -16 -16 624
-8 -64 904
-24 -32 -48 -56 -56 -48 -16 -80 568
-48 -80 -56 -64 -48 -56 -64 -72 440
-80 -64 -48 -16 752
96 -8 -72 792
